Construindo workflows preditivos usando a base de dados Space Titanic – EST125 - Introdução à Mineração de Dados
…
O modelo Random Forest treinado com os melhores hiperparâmetros;

As métricas obtidas no conjunto de teste (como acurácia, AUC, sensibilidade, etc.);

As predições feitas no conjunto de teste (útil para gerar curva ROC, matriz de confusão, etc.).

Podemos extrair as predições feitas pelo modelo Random Forest no conjunto de teste, após o ajuste final com last_fit().

rf_teste_resultados = rf_ajustado %>% 
  collect_predictions()

rf_teste_resultados

# A tibble: 2,174 × 7
   .pred_class .pred_FALSE .pred_TRUE id                .row Transported .config
   <fct>             <dbl>      <dbl> <chr>            <int> <fct>       <chr>  
 1 TRUE             0.0251     0.975  train/test split     1 FALSE       Prepro…
 2 FALSE            0.890      0.110  train/test split     4 FALSE       Prepro…
 3 TRUE             0.0251     0.975  train/test split    11 TRUE        Prepro…
 4 FALSE            0.935      0.0653 train/test split    18 FALSE       Prepro…
 5 TRUE             0.0152     0.985  train/test split    19 TRUE        Prepro…
 6 TRUE             0.375      0.625  train/test split    20 TRUE        Prepro…
 7 TRUE             0.296      0.704  train/test split    24 FALSE       Prepro…
 8 TRUE             0.296      0.704  train/test split    27 FALSE       Prepro…
 9 TRUE             0.0152     0.985  train/test split    35 TRUE        Prepro…
10 FALSE            0.950      0.0497 train/test split    40 FALSE       Prepro…
# ℹ 2,164 more rows
…
